(order (orderNumber 1099)
	(order-line 
		(quantity 10)
		(product "36R1-3303")
		(description "CAN FILTER")
		(line-number "1")
	)
	(order-line 
		(quantity 3)
		(product "36R1-2023")
		(description "BRACKET CONTROL")
		(line-number "2")
	)
)

(order (orderNumber 1017)
	(order-line 
		(quantity 2)
		(product "36R1-3333")
		(description "FRAME DAMPER")
		(line-number "1")
	)
	(order-line 
		(quantity 7)
		(product "36R1-3813")
		(description "DRAIN PAN NON DRAINABLE")
		(line-number "2")
	)
	(order-line 
		(quantity 2)
		(product "36R1-2322")
		(description "BRACKET HOSE")
		(line-number "3")
	)
)

(order (orderNumber 1055)
	(order-line 
		(quantity 2)
		(product "36R1-2603")
		(description "PANEL BACK")
		(line-number "1")
	)
)

(order (orderNumber 1042)
	(order-line 
		(quantity 7)
		(product "36R1-2023")
		(description "BRACKET CONTROL")
		(line-number "1")
	)
	(order-line 
		(quantity 3)
		(product "36R1-3443")
		(description "SUPPORT COIL RV,RH,TE")
		(line-number "2")
	)
	(order-line 
		(quantity 2)
		(product "36R1-2993")
		(description "DRAIN PAN DRAINABLE")
		(line-number "3")
	)
	(order-line 
		(quantity 10)
		(product "36R1-3813")
		(description "DRAIN PAN NON DRAINABLE")
		(line-number "4")
	)
)

(order (orderNumber 1085)
	(order-line 
		(quantity 1)
		(product "36R1-3373")
		(description "PANEL END RH (PLENUM)")
		(line-number "1")
	)
)

(order (orderNumber 1077)
	(order-line 
		(quantity 3)
		(product "36R1-264")
		(description "INSULATION ASSEMBLY")
		(line-number "1")
	)
	(order-line 
		(quantity 2)
		(product "36R1-2322")
		(description "BRACKET HOSE")
		(line-number "2")
	)
	(order-line 
		(quantity 27)
		(product "36R1-2023")
		(description "BRACKET CONTROL")
		(line-number "3")
	)
	(order-line 
		(quantity 3)
		(product "36R1-3013")
		(description "DRAIN PAN")
		(line-number "4")
	)
)

(order (orderNumber 1013)
	(order-line 
		(quantity 7)
		(product "36R1-2023")
		(description "BRACKET CONTROL")
		(line-number "1")
	)
	(order-line 
		(quantity 7)
		(product "36R1-3443")
		(description "SUPPORT COIL RV,RH,TE")
		(line-number "2")
	)
	(order-line 
		(quantity 2)
		(product "36R1-3571")
		(description "CLIP 12 GAUGE WIRE")
		(line-number "3")
	)
)

(order (orderNumber 1029)
	(order-line 
		(quantity 7)
		(product "36R1-264")
		(description "INSULATION ASSEMBLY")
		(line-number "1")
	)
)

(order (orderNumber 1092)
	(order-line 
		(quantity 27)
		(product "36R1-3333")
		(description "FRAME DAMPER")
		(line-number "1")
	)
)

(order (orderNumber 1023)
	(order-line 
		(quantity 10)
		(product "36R1-3023")
		(description "DRAIN PAN")
		(line-number "1")
	)
)

(order (orderNumber 1072)
	(order-line 
		(quantity 10)
		(product "36R1-1681")
		(description "PLATE NAME")
		(line-number "1")
	)
	(order-line 
		(quantity 27)
		(product "36R1-3373")
		(description "PANEL END RH (PLENUM)")
		(line-number "2")
	)
	(order-line 
		(quantity 1)
		(product "36R1-3613")
		(description "PLATE UPPER")
		(line-number "3")
	)
	(order-line 
		(quantity 7)
		(product "36R1-3303")
		(description "CAN FILTER")
		(line-number "4")
	)
	(order-line 
		(quantity 2)
		(product "36R1-2993")
		(description "DRAIN PAN DRAINABLE")
		(line-number "5")
	)
)

(order (orderNumber 1046)
	(order-line 
		(quantity 1)
		(product "36R1-3303")
		(description "CAN FILTER")
		(line-number "1")
	)
	(order-line 
		(quantity 2)
		(product "36R1-2603")
		(description "PANEL BACK")
		(line-number "2")
	)
)

(order (orderNumber 1027)
	(order-line 
		(quantity 27)
		(product "36R1-3813")
		(description "DRAIN PAN NON DRAINABLE")
		(line-number "1")
	)
	(order-line 
		(quantity 3)
		(product "36R1-2993")
		(description "DRAIN PAN DRAINABLE")
		(line-number "2")
	)
	(order-line 
		(quantity 1)
		(product "36R1-2322")
		(description "BRACKET HOSE")
		(line-number "3")
	)
)

(order (orderNumber 1002)
	(order-line 
		(quantity 1)
		(product "36R1-3581")
		(description "BRACKET MOUNTING")
		(line-number "1")
	)
	(order-line 
		(quantity 10)
		(product "36R1-3793")
		(description "PANEL END LH (PLENUM)")
		(line-number "2")
	)
)

(order (orderNumber 1087)
	(order-line 
		(quantity 7)
		(product "36R1-2603")
		(description "PANEL BACK")
		(line-number "1")
	)
)

(order (orderNumber 1097)
	(order-line 
		(quantity 7)
		(product "36R1-3443")
		(description "SUPPORT COIL RV,RH,TE")
		(line-number "1")
	)
	(order-line 
		(quantity 1)
		(product "36R1-3433")
		(description "SUPPORT COIL RV,RH,TE.")
		(line-number "2")
	)
)

(order (orderNumber 1058)
	(order-line 
		(quantity 2)
		(product "36R1-1681")
		(description "PLATE NAME")
		(line-number "1")
	)
	(order-line 
		(quantity 7)
		(product "36R1-268")
		(description "SCREEN LINT (36R1-3173) CARTON")
		(line-number "2")
	)
)

(order (orderNumber 1012)
	(order-line 
		(quantity 7)
		(product "36R1-3333")
		(description "FRAME DAMPER")
		(line-number "1")
	)
	(order-line 
		(quantity 3)
		(product "36R1-2603")
		(description "PANEL BACK")
		(line-number "2")
	)
	(order-line 
		(quantity 3)
		(product "36R1-3581")
		(description "BRACKET MOUNTING")
		(line-number "3")
	)
	(order-line 
		(quantity 10)
		(product "36R1-2023")
		(description "BRACKET CONTROL")
		(line-number "4")
	)
)

(order (orderNumber 1037)
	(order-line 
		(quantity 2)
		(product "36R1-3571")
		(description "CLIP 12 GAUGE WIRE")
		(line-number "1")
	)
	(order-line 
		(quantity 7)
		(product "36R1-3813")
		(description "DRAIN PAN NON DRAINABLE")
		(line-number "2")
	)
	(order-line 
		(quantity 3)
		(product "36R1-173")
		(description "DAMPER ASSEMBLY")
		(line-number "3")
	)
)

(order (orderNumber 1079)
	(order-line 
		(quantity 2)
		(product "36R1-2322")
		(description "BRACKET HOSE")
		(line-number "1")
	)
	(order-line 
		(quantity 27)
		(product "36R1-3223")
		(description "PLATE")
		(line-number "2")
	)
	(order-line 
		(quantity 7)
		(product "36R1-3581")
		(description "BRACKET MOUNTING")
		(line-number "3")
	)
	(order-line 
		(quantity 10)
		(product "36R1-3441")
		(description "SEAL CONTROL ROD")
		(line-number "4")
	)
	(order-line 
		(quantity 1)
		(product "36R1-3373")
		(description "PANEL END RH (PLENUM)")
		(line-number "5")
	)
)

(order (orderNumber 1044)
	(order-line 
		(quantity 27)
		(product "36R1-3303")
		(description "CAN FILTER")
		(line-number "1")
	)
	(order-line 
		(quantity 7)
		(product "36R1-2993")
		(description "DRAIN PAN DRAINABLE")
		(line-number "2")
	)
	(order-line 
		(quantity 3)
		(product "36R1-3613")
		(description "PLATE UPPER")
		(line-number "3")
	)
	(order-line 
		(quantity 1)
		(product "36R1-3813")
		(description "DRAIN PAN NON DRAINABLE")
		(line-number "4")
	)
)

(order (orderNumber 1039)
	(order-line 
		(quantity 27)
		(product "36R1-3753")
		(description "COVER FILTER")
		(line-number "1")
	)
	(order-line 
		(quantity 3)
		(product "36R1-3223")
		(description "PLATE")
		(line-number "2")
	)
)

(order (orderNumber 1053)
	(order-line 
		(quantity 7)
		(product "36R1-3333")
		(description "FRAME DAMPER")
		(line-number "1")
	)
	(order-line 
		(quantity 27)
		(product "36R1-3563")
		(description "PANEL FRONT")
		(line-number "2")
	)
)

(order (orderNumber 1088)
	(order-line 
		(quantity 10)
		(product "36R1-3223")
		(description "PLATE")
		(line-number "1")
	)
	(order-line 
		(quantity 7)
		(product "36R1-268")
		(description "SCREEN LINT (36R1-3173) CARTON")
		(line-number "2")
	)
	(order-line 
		(quantity 3)
		(product "36R1-3013")
		(description "DRAIN PAN")
		(line-number "3")
	)
	(order-line 
		(quantity 3)
		(product "36R1-3581")
		(description "BRACKET MOUNTING")
		(line-number "4")
	)
)

(order (orderNumber 1022)
	(order-line 
		(quantity 2)
		(product "36R1-3013")
		(description "DRAIN PAN")
		(line-number "1")
	)
	(order-line 
		(quantity 10)
		(product "36R1-3443")
		(description "SUPPORT COIL RV,RH,TE")
		(line-number "2")
	)
)

(order (orderNumber 1057)
	(order-line 
		(quantity 1)
		(product "36R1-3581")
		(description "BRACKET MOUNTING")
		(line-number "1")
	)
)

(order (orderNumber 1048)
	(order-line 
		(quantity 10)
		(product "36R1-3333")
		(description "FRAME DAMPER")
		(line-number "1")
	)
	(order-line 
		(quantity 7)
		(product "36R1-3581")
		(description "BRACKET MOUNTING")
		(line-number "2")
	)
)

(order (orderNumber 1082)
	(order-line 
		(quantity 7)
		(product "36R1-2402")
		(description "BRACKET ZEE BAR")
		(line-number "1")
	)
	(order-line 
		(quantity 1)
		(product "36R1-2993")
		(description "DRAIN PAN DRAINABLE")
		(line-number "2")
	)
	(order-line 
		(quantity 7)
		(product "36R1-3443")
		(description "SUPPORT COIL RV,RH,TE")
		(line-number "3")
	)
	(order-line 
		(quantity 1)
		(product "36R1-3571")
		(description "CLIP 12 GAUGE WIRE")
		(line-number "4")
	)
	(order-line 
		(quantity 3)
		(product "36R1-3793")
		(description "PANEL END LH (PLENUM)")
		(line-number "5")
	)
)

(order (orderNumber 1089)
	(order-line 
		(quantity 2)
		(product "36R1-3373")
		(description "PANEL END RH (PLENUM)")
		(line-number "1")
	)
)

(order (orderNumber 1056)
	(order-line 
		(quantity 7)
		(product "36R1-264")
		(description "INSULATION ASSEMBLY")
		(line-number "1")
	)
)

(order (orderNumber 1062)
	(order-line 
		(quantity 7)
		(product "36R1-2402")
		(description "BRACKET ZEE BAR")
		(line-number "1")
	)
)

(order (orderNumber 1063)
	(order-line 
		(quantity 1)
		(product "36R1-264")
		(description "INSULATION ASSEMBLY")
		(line-number "1")
	)
)

(order (orderNumber 1016)
	(order-line 
		(quantity 7)
		(product "36R1-173")
		(description "DAMPER ASSEMBLY")
		(line-number "1")
	)
	(order-line 
		(quantity 1)
		(product "36R1-3023")
		(description "DRAIN PAN")
		(line-number "2")
	)
	(order-line 
		(quantity 3)
		(product "36R1-2993")
		(description "DRAIN PAN DRAINABLE")
		(line-number "3")
	)
)

(order (orderNumber 1036)
	(order-line 
		(quantity 1)
		(product "36R1-173")
		(description "DAMPER ASSEMBLY")
		(line-number "1")
	)
	(order-line 
		(quantity 2)
		(product "36R1-3023")
		(description "DRAIN PAN")
		(line-number "2")
	)
	(order-line 
		(quantity 1)
		(product "36R1-268")
		(description "SCREEN LINT (36R1-3173) CARTON")
		(line-number "3")
	)
	(order-line 
		(quantity 7)
		(product "36R1-3443")
		(description "SUPPORT COIL RV,RH,TE")
		(line-number "4")
	)
)

(order (orderNumber 1005)
	(order-line 
		(quantity 1)
		(product "36R1-3793")
		(description "PANEL END LH (PLENUM)")
		(line-number "1")
	)
	(order-line 
		(quantity 2)
		(product "36R1-268")
		(description "SCREEN LINT (36R1-3173) CARTON")
		(line-number "2")
	)
	(order-line 
		(quantity 10)
		(product "36R1-3793")
		(description "PANEL END LH (PLENUM)")
		(line-number "3")
	)
	(order-line 
		(quantity 3)
		(product "36R1-268")
		(description "SCREEN LINT (36R1-3173) CARTON")
		(line-number "4")
	)
)

(order (orderNumber 1090)
	(order-line 
		(quantity 27)
		(product "36R1-264")
		(description "INSULATION ASSEMBLY")
		(line-number "1")
	)
)

(order (orderNumber 1034)
	(order-line 
		(quantity 27)
		(product "36R1-3433")
		(description "SUPPORT COIL RV,RH,TE.")
		(line-number "1")
	)
	(order-line 
		(quantity 2)
		(product "36R1-2322")
		(description "BRACKET HOSE")
		(line-number "2")
	)
)

(order (orderNumber 1084)
	(order-line 
		(quantity 10)
		(product "36R1-3793")
		(description "PANEL END LH (PLENUM)")
		(line-number "1")
	)
	(order-line 
		(quantity 7)
		(product "36R1-3613")
		(description "PLATE UPPER")
		(line-number "2")
	)
)

(order (orderNumber 1007)
	(order-line 
		(quantity 3)
		(product "36R1-1681")
		(description "PLATE NAME")
		(line-number "1")
	)
)

(order (orderNumber 1069)
	(order-line 
		(quantity 10)
		(product "36R1-173")
		(description "DAMPER ASSEMBLY")
		(line-number "1")
	)
)

(order (orderNumber 1073)
	(order-line 
		(quantity 10)
		(product "36R1-2603")
		(description "PANEL BACK")
		(line-number "1")
	)
	(order-line 
		(quantity 7)
		(product "36R1-3223")
		(description "PLATE")
		(line-number "2")
	)
	(order-line 
		(quantity 3)
		(product "36R1-3373")
		(description "PANEL END RH (PLENUM)")
		(line-number "3")
	)
)

(order (orderNumber 1014)
	(order-line 
		(quantity 2)
		(product "36R1-3013")
		(description "DRAIN PAN")
		(line-number "1")
	)
	(order-line 
		(quantity 7)
		(product "36R1-3013")
		(description "DRAIN PAN")
		(line-number "2")
	)
)

(order (orderNumber 1031)
	(order-line 
		(quantity 7)
		(product "36R1-2402")
		(description "BRACKET ZEE BAR")
		(line-number "1")
	)
	(order-line 
		(quantity 7)
		(product "36R1-2603")
		(description "PANEL BACK")
		(line-number "2")
	)
	(order-line 
		(quantity 10)
		(product "36R1-3333")
		(description "FRAME DAMPER")
		(line-number "3")
	)
)

(order (orderNumber 1021)
	(order-line 
		(quantity 27)
		(product "36R1-3793")
		(description "PANEL END LH (PLENUM)")
		(line-number "1")
	)
	(order-line 
		(quantity 3)
		(product "36R1-3433")
		(description "SUPPORT COIL RV,RH,TE.")
		(line-number "2")
	)
	(order-line 
		(quantity 3)
		(product "36R1-3303")
		(description "CAN FILTER")
		(line-number "3")
	)
	(order-line 
		(quantity 7)
		(product "36R1-3813")
		(description "DRAIN PAN NON DRAINABLE")
		(line-number "4")
	)
)

(order (orderNumber 1045)
	(order-line 
		(quantity 27)
		(product "36R1-173")
		(description "DAMPER ASSEMBLY")
		(line-number "1")
	)
	(order-line 
		(quantity 10)
		(product "36R1-3563")
		(description "PANEL FRONT")
		(line-number "2")
	)
	(order-line 
		(quantity 2)
		(product "36R1-3613")
		(description "PLATE UPPER")
		(line-number "3")
	)
	(order-line 
		(quantity 7)
		(product "36R1-3373")
		(description "PANEL END RH (PLENUM)")
		(line-number "4")
	)
)

(order (orderNumber 1064)
	(order-line 
		(quantity 10)
		(product "36R1-268")
		(description "SCREEN LINT (36R1-3173) CARTON")
		(line-number "1")
	)
	(order-line 
		(quantity 1)
		(product "36R1-264")
		(description "INSULATION ASSEMBLY")
		(line-number "2")
	)
	(order-line 
		(quantity 27)
		(product "36R1-3373")
		(description "PANEL END RH (PLENUM)")
		(line-number "3")
	)
	(order-line 
		(quantity 27)
		(product "36R1-3373")
		(description "PANEL END RH (PLENUM)")
		(line-number "4")
	)
	(order-line 
		(quantity 2)
		(product "36R1-2023")
		(description "BRACKET CONTROL")
		(line-number "5")
	)
)

(order (orderNumber 1006)
	(order-line 
		(quantity 2)
		(product "36R1-2603")
		(description "PANEL BACK")
		(line-number "1")
	)
)

(order (orderNumber 1068)
	(order-line 
		(quantity 27)
		(product "36R1-1681")
		(description "PLATE NAME")
		(line-number "1")
	)
	(order-line 
		(quantity 7)
		(product "36R1-2322")
		(description "BRACKET HOSE")
		(line-number "2")
	)
	(order-line 
		(quantity 10)
		(product "36R1-3563")
		(description "PANEL FRONT")
		(line-number "3")
	)
)

(order (orderNumber 1074)
	(order-line 
		(quantity 7)
		(product "36R1-268")
		(description "SCREEN LINT (36R1-3173) CARTON")
		(line-number "1")
	)
	(order-line 
		(quantity 3)
		(product "36R1-2322")
		(description "BRACKET HOSE")
		(line-number "2")
	)
	(order-line 
		(quantity 3)
		(product "36R1-3023")
		(description "DRAIN PAN")
		(line-number "3")
	)
	(order-line 
		(quantity 2)
		(product "36R1-2322")
		(description "BRACKET HOSE")
		(line-number "4")
	)
)

(order (orderNumber 1018)
	(order-line 
		(quantity 3)
		(product "36R1-3793")
		(description "PANEL END LH (PLENUM)")
		(line-number "1")
	)
	(order-line 
		(quantity 27)
		(product "36R1-2322")
		(description "BRACKET HOSE")
		(line-number "2")
	)
	(order-line 
		(quantity 7)
		(product "36R1-3753")
		(description "COVER FILTER")
		(line-number "3")
	)
)

(order (orderNumber 1086)
	(order-line 
		(quantity 27)
		(product "36R1-3613")
		(description "PLATE UPPER")
		(line-number "1")
	)
	(order-line 
		(quantity 3)
		(product "36R1-2993")
		(description "DRAIN PAN DRAINABLE")
		(line-number "2")
	)
	(order-line 
		(quantity 10)
		(product "36R1-1681")
		(description "PLATE NAME")
		(line-number "3")
	)
)

(order (orderNumber 1052)
	(order-line 
		(quantity 10)
		(product "36R1-2023")
		(description "BRACKET CONTROL")
		(line-number "1")
	)
	(order-line 
		(quantity 2)
		(product "36R1-3223")
		(description "PLATE")
		(line-number "2")
	)
	(order-line 
		(quantity 3)
		(product "36R1-2322")
		(description "BRACKET HOSE")
		(line-number "3")
	)
)

(order (orderNumber 1080)
	(order-line 
		(quantity 7)
		(product "36R1-3303")
		(description "CAN FILTER")
		(line-number "1")
	)
	(order-line 
		(quantity 3)
		(product "36R1-3581")
		(description "BRACKET MOUNTING")
		(line-number "2")
	)
)

(order (orderNumber 1076)
	(order-line 
		(quantity 1)
		(product "36R1-2322")
		(description "BRACKET HOSE")
		(line-number "1")
	)
)

(order (orderNumber 1003)
	(order-line 
		(quantity 2)
		(product "36R1-2023")
		(description "BRACKET CONTROL")
		(line-number "1")
	)
	(order-line 
		(quantity 27)
		(product "36R1-1681")
		(description "PLATE NAME")
		(line-number "2")
	)
	(order-line 
		(quantity 3)
		(product "36R1-3441")
		(description "SEAL CONTROL ROD")
		(line-number "3")
	)
	(order-line 
		(quantity 2)
		(product "36R1-3013")
		(description "DRAIN PAN")
		(line-number "4")
	)
	(order-line 
		(quantity 10)
		(product "36R1-3333")
		(description "FRAME DAMPER")
		(line-number "5")
	)
)

(order (orderNumber 1078)
	(order-line 
		(quantity 1)
		(product "36R1-3223")
		(description "PLATE")
		(line-number "1")
	)
	(order-line 
		(quantity 7)
		(product "36R1-1681")
		(description "PLATE NAME")
		(line-number "2")
	)
	(order-line 
		(quantity 3)
		(product "36R1-3013")
		(description "DRAIN PAN")
		(line-number "3")
	)
)

(order (orderNumber 1030)
	(order-line 
		(quantity 10)
		(product "36R1-3571")
		(description "CLIP 12 GAUGE WIRE")
		(line-number "1")
	)
	(order-line 
		(quantity 1)
		(product "36R1-3563")
		(description "PANEL FRONT")
		(line-number "2")
	)
	(order-line 
		(quantity 1)
		(product "36R1-3023")
		(description "DRAIN PAN")
		(line-number "3")
	)
	(order-line 
		(quantity 27)
		(product "36R1-264")
		(description "INSULATION ASSEMBLY")
		(line-number "4")
	)
)

(order (orderNumber 1038)
	(order-line 
		(quantity 2)
		(product "36R1-3563")
		(description "PANEL FRONT")
		(line-number "1")
	)
	(order-line 
		(quantity 1)
		(product "36R1-3373")
		(description "PANEL END RH (PLENUM)")
		(line-number "2")
	)
	(order-line 
		(quantity 10)
		(product "36R1-2023")
		(description "BRACKET CONTROL")
		(line-number "3")
	)
	(order-line 
		(quantity 3)
		(product "36R1-3581")
		(description "BRACKET MOUNTING")
		(line-number "4")
	)
)

(order (orderNumber 1025)
	(order-line 
		(quantity 1)
		(product "36R1-3023")
		(description "DRAIN PAN")
		(line-number "1")
	)
	(order-line 
		(quantity 1)
		(product "36R1-3441")
		(description "SEAL CONTROL ROD")
		(line-number "2")
	)
	(order-line 
		(quantity 10)
		(product "36R1-2322")
		(description "BRACKET HOSE")
		(line-number "3")
	)
)

(order (orderNumber 1001)
	(order-line 
		(quantity 3)
		(product "36R1-3441")
		(description "SEAL CONTROL ROD")
		(line-number "1")
	)
	(order-line 
		(quantity 10)
		(product "36R1-1681")
		(description "PLATE NAME")
		(line-number "2")
	)
	(order-line 
		(quantity 27)
		(product "36R1-3581")
		(description "BRACKET MOUNTING")
		(line-number "3")
	)
)

(order (orderNumber 1067)
	(order-line 
		(quantity 27)
		(product "36R1-3581")
		(description "BRACKET MOUNTING")
		(line-number "1")
	)
	(order-line 
		(quantity 3)
		(product "36R1-3303")
		(description "CAN FILTER")
		(line-number "2")
	)
)

(order (orderNumber 1033)
	(order-line 
		(quantity 3)
		(product "36R1-3441")
		(description "SEAL CONTROL ROD")
		(line-number "1")
	)
	(order-line 
		(quantity 2)
		(product "36R1-3581")
		(description "BRACKET MOUNTING")
		(line-number "2")
	)
)

(order (orderNumber 1065)
	(order-line 
		(quantity 1)
		(product "36R1-264")
		(description "INSULATION ASSEMBLY")
		(line-number "1")
	)
	(order-line 
		(quantity 7)
		(product "36R1-3581")
		(description "BRACKET MOUNTING")
		(line-number "2")
	)
	(order-line 
		(quantity 2)
		(product "36R1-3441")
		(description "SEAL CONTROL ROD")
		(line-number "3")
	)
)

(order (orderNumber 1100)
	(order-line 
		(quantity 2)
		(product "36R1-3023")
		(description "DRAIN PAN")
		(line-number "1")
	)
)

(order (orderNumber 1060)
	(order-line 
		(quantity 7)
		(product "36R1-3303")
		(description "CAN FILTER")
		(line-number "1")
	)
	(order-line 
		(quantity 10)
		(product "36R1-2023")
		(description "BRACKET CONTROL")
		(line-number "2")
	)
	(order-line 
		(quantity 10)
		(product "36R1-3813")
		(description "DRAIN PAN NON DRAINABLE")
		(line-number "3")
	)
)

(order (orderNumber 1051)
	(order-line 
		(quantity 1)
		(product "36R1-3571")
		(description "CLIP 12 GAUGE WIRE")
		(line-number "1")
	)
	(order-line 
		(quantity 27)
		(product "36R1-2993")
		(description "DRAIN PAN DRAINABLE")
		(line-number "2")
	)
)

(order (orderNumber 1035)
	(order-line 
		(quantity 7)
		(product "36R1-2322")
		(description "BRACKET HOSE")
		(line-number "1")
	)
	(order-line 
		(quantity 10)
		(product "36R1-3441")
		(description "SEAL CONTROL ROD")
		(line-number "2")
	)
	(order-line 
		(quantity 1)
		(product "36R1-2023")
		(description "BRACKET CONTROL")
		(line-number "3")
	)
	(order-line 
		(quantity 1)
		(product "36R1-3023")
		(description "DRAIN PAN")
		(line-number "4")
	)
)

(order (orderNumber 1011)
	(order-line 
		(quantity 27)
		(product "36R1-3563")
		(description "PANEL FRONT")
		(line-number "1")
	)
	(order-line 
		(quantity 7)
		(product "36R1-3563")
		(description "PANEL FRONT")
		(line-number "2")
	)
	(order-line 
		(quantity 3)
		(product "36R1-2322")
		(description "BRACKET HOSE")
		(line-number "3")
	)
)

(order (orderNumber 1081)
	(order-line 
		(quantity 10)
		(product "36R1-3303")
		(description "CAN FILTER")
		(line-number "1")
	)
)

(order (orderNumber 1043)
	(order-line 
		(quantity 10)
		(product "36R1-2402")
		(description "BRACKET ZEE BAR")
		(line-number "1")
	)
	(order-line 
		(quantity 2)
		(product "36R1-2322")
		(description "BRACKET HOSE")
		(line-number "2")
	)
	(order-line 
		(quantity 7)
		(product "36R1-3793")
		(description "PANEL END LH (PLENUM)")
		(line-number "3")
	)
	(order-line 
		(quantity 10)
		(product "36R1-3793")
		(description "PANEL END LH (PLENUM)")
		(line-number "4")
	)
)

(order (orderNumber 1094)
	(order-line 
		(quantity 2)
		(product "36R1-3813")
		(description "DRAIN PAN NON DRAINABLE")
		(line-number "1")
	)
	(order-line 
		(quantity 1)
		(product "36R1-3433")
		(description "SUPPORT COIL RV,RH,TE.")
		(line-number "2")
	)
	(order-line 
		(quantity 1)
		(product "36R1-3571")
		(description "CLIP 12 GAUGE WIRE")
		(line-number "3")
	)
)

(order (orderNumber 1020)
	(order-line 
		(quantity 1)
		(product "36R1-3563")
		(description "PANEL FRONT")
		(line-number "1")
	)
)

(order (orderNumber 1054)
	(order-line 
		(quantity 3)
		(product "36R1-3571")
		(description "CLIP 12 GAUGE WIRE")
		(line-number "1")
	)
)

(order (orderNumber 1010)
	(order-line 
		(quantity 7)
		(product "36R1-1681")
		(description "PLATE NAME")
		(line-number "1")
	)
	(order-line 
		(quantity 27)
		(product "36R1-2603")
		(description "PANEL BACK")
		(line-number "2")
	)
	(order-line 
		(quantity 3)
		(product "36R1-3581")
		(description "BRACKET MOUNTING")
		(line-number "3")
	)
)

(order (orderNumber 1093)
	(order-line 
		(quantity 10)
		(product "36R1-264")
		(description "INSULATION ASSEMBLY")
		(line-number "1")
	)
	(order-line 
		(quantity 3)
		(product "36R1-3613")
		(description "PLATE UPPER")
		(line-number "2")
	)
	(order-line 
		(quantity 27)
		(product "36R1-264")
		(description "INSULATION ASSEMBLY")
		(line-number "3")
	)
	(order-line 
		(quantity 7)
		(product "36R1-3581")
		(description "BRACKET MOUNTING")
		(line-number "4")
	)
)

(order (orderNumber 1028)
	(order-line 
		(quantity 7)
		(product "36R1-3013")
		(description "DRAIN PAN")
		(line-number "1")
	)
	(order-line 
		(quantity 3)
		(product "36R1-3433")
		(description "SUPPORT COIL RV,RH,TE.")
		(line-number "2")
	)
	(order-line 
		(quantity 27)
		(product "36R1-3613")
		(description "PLATE UPPER")
		(line-number "3")
	)
	(order-line 
		(quantity 27)
		(product "36R1-3753")
		(description "COVER FILTER")
		(line-number "4")
	)
)

(order (orderNumber 1050)
	(order-line 
		(quantity 1)
		(product "36R1-2402")
		(description "BRACKET ZEE BAR")
		(line-number "1")
	)
	(order-line 
		(quantity 1)
		(product "36R1-2993")
		(description "DRAIN PAN DRAINABLE")
		(line-number "2")
	)
	(order-line 
		(quantity 1)
		(product "36R1-3013")
		(description "DRAIN PAN")
		(line-number "3")
	)
	(order-line 
		(quantity 7)
		(product "36R1-1681")
		(description "PLATE NAME")
		(line-number "4")
	)
)

(order (orderNumber 1098)
	(order-line 
		(quantity 27)
		(product "36R1-2322")
		(description "BRACKET HOSE")
		(line-number "1")
	)
	(order-line 
		(quantity 2)
		(product "36R1-3303")
		(description "CAN FILTER")
		(line-number "2")
	)
)

(order (orderNumber 1070)
	(order-line 
		(quantity 3)
		(product "36R1-3563")
		(description "PANEL FRONT")
		(line-number "1")
	)
	(order-line 
		(quantity 10)
		(product "36R1-3303")
		(description "CAN FILTER")
		(line-number "2")
	)
	(order-line 
		(quantity 3)
		(product "36R1-2993")
		(description "DRAIN PAN DRAINABLE")
		(line-number "3")
	)
)

(order (orderNumber 1095)
	(order-line 
		(quantity 3)
		(product "36R1-3443")
		(description "SUPPORT COIL RV,RH,TE")
		(line-number "1")
	)
)

(order (orderNumber 1040)
	(order-line 
		(quantity 7)
		(product "36R1-2993")
		(description "DRAIN PAN DRAINABLE")
		(line-number "1")
	)
)

(order (orderNumber 1008)
	(order-line 
		(quantity 10)
		(product "36R1-3571")
		(description "CLIP 12 GAUGE WIRE")
		(line-number "1")
	)
	(order-line 
		(quantity 1)
		(product "36R1-2322")
		(description "BRACKET HOSE")
		(line-number "2")
	)
	(order-line 
		(quantity 7)
		(product "36R1-3023")
		(description "DRAIN PAN")
		(line-number "3")
	)
)

(order (orderNumber 1059)
	(order-line 
		(quantity 2)
		(product "36R1-3433")
		(description "SUPPORT COIL RV,RH,TE.")
		(line-number "1")
	)
	(order-line 
		(quantity 1)
		(product "36R1-3013")
		(description "DRAIN PAN")
		(line-number "2")
	)
	(order-line 
		(quantity 7)
		(product "36R1-3433")
		(description "SUPPORT COIL RV,RH,TE.")
		(line-number "3")
	)
	(order-line 
		(quantity 1)
		(product "36R1-264")
		(description "INSULATION ASSEMBLY")
		(line-number "4")
	)
)

(order (orderNumber 1026)
	(order-line 
		(quantity 3)
		(product "36R1-264")
		(description "INSULATION ASSEMBLY")
		(line-number "1")
	)
	(order-line 
		(quantity 7)
		(product "36R1-2603")
		(description "PANEL BACK")
		(line-number "2")
	)
)

(order (orderNumber 1071)
	(order-line 
		(quantity 3)
		(product "36R1-2322")
		(description "BRACKET HOSE")
		(line-number "1")
	)
)

(order (orderNumber 1049)
	(order-line 
		(quantity 7)
		(product "36R1-3571")
		(description "CLIP 12 GAUGE WIRE")
		(line-number "1")
	)
	(order-line 
		(quantity 7)
		(product "36R1-3433")
		(description "SUPPORT COIL RV,RH,TE.")
		(line-number "2")
	)
	(order-line 
		(quantity 7)
		(product "36R1-3433")
		(description "SUPPORT COIL RV,RH,TE.")
		(line-number "3")
	)
	(order-line 
		(quantity 3)
		(product "36R1-3443")
		(description "SUPPORT COIL RV,RH,TE")
		(line-number "4")
	)
)

(order (orderNumber 1047)
	(order-line 
		(quantity 27)
		(product "36R1-2322")
		(description "BRACKET HOSE")
		(line-number "1")
	)
)

(order (orderNumber 1004)
	(order-line 
		(quantity 27)
		(product "36R1-2402")
		(description "BRACKET ZEE BAR")
		(line-number "1")
	)
	(order-line 
		(quantity 27)
		(product "36R1-264")
		(description "INSULATION ASSEMBLY")
		(line-number "2")
	)
	(order-line 
		(quantity 7)
		(product "36R1-2023")
		(description "BRACKET CONTROL")
		(line-number "3")
	)
)

(order (orderNumber 1061)
	(order-line 
		(quantity 10)
		(product "36R1-3303")
		(description "CAN FILTER")
		(line-number "1")
	)
	(order-line 
		(quantity 10)
		(product "36R1-3333")
		(description "FRAME DAMPER")
		(line-number "2")
	)
)

(order (orderNumber 1091)
	(order-line 
		(quantity 1)
		(product "36R1-3441")
		(description "SEAL CONTROL ROD")
		(line-number "1")
	)
	(order-line 
		(quantity 10)
		(product "36R1-3813")
		(description "DRAIN PAN NON DRAINABLE")
		(line-number "2")
	)
	(order-line 
		(quantity 3)
		(product "36R1-2322")
		(description "BRACKET HOSE")
		(line-number "3")
	)
)

(order (orderNumber 1032)
	(order-line 
		(quantity 27)
		(product "36R1-2402")
		(description "BRACKET ZEE BAR")
		(line-number "1")
	)
	(order-line 
		(quantity 2)
		(product "36R1-3581")
		(description "BRACKET MOUNTING")
		(line-number "2")
	)
	(order-line 
		(quantity 3)
		(product "36R1-3443")
		(description "SUPPORT COIL RV,RH,TE")
		(line-number "3")
	)
)

(order (orderNumber 1024)
	(order-line 
		(quantity 2)
		(product "36R1-3813")
		(description "DRAIN PAN NON DRAINABLE")
		(line-number "1")
	)
	(order-line 
		(quantity 27)
		(product "36R1-3441")
		(description "SEAL CONTROL ROD")
		(line-number "2")
	)
)

(order (orderNumber 1066)
	(order-line 
		(quantity 10)
		(product "36R1-3013")
		(description "DRAIN PAN")
		(line-number "1")
	)
	(order-line 
		(quantity 1)
		(product "36R1-3813")
		(description "DRAIN PAN NON DRAINABLE")
		(line-number "2")
	)
)

(order (orderNumber 1075)
	(order-line 
		(quantity 10)
		(product "36R1-3373")
		(description "PANEL END RH (PLENUM)")
		(line-number "1")
	)
)

(order (orderNumber 1019)
	(order-line 
		(quantity 7)
		(product "36R1-3303")
		(description "CAN FILTER")
		(line-number "1")
	)
	(order-line 
		(quantity 2)
		(product "36R1-3753")
		(description "COVER FILTER")
		(line-number "2")
	)
	(order-line 
		(quantity 7)
		(product "36R1-2402")
		(description "BRACKET ZEE BAR")
		(line-number "3")
	)
	(order-line 
		(quantity 1)
		(product "36R1-173")
		(description "DAMPER ASSEMBLY")
		(line-number "4")
	)
)

(order (orderNumber 1041)
	(order-line 
		(quantity 27)
		(product "36R1-3303")
		(description "CAN FILTER")
		(line-number "1")
	)
	(order-line 
		(quantity 3)
		(product "36R1-3443")
		(description "SUPPORT COIL RV,RH,TE")
		(line-number "2")
	)
)

(order (orderNumber 1096)
	(order-line 
		(quantity 3)
		(product "36R1-3581")
		(description "BRACKET MOUNTING")
		(line-number "1")
	)
	(order-line 
		(quantity 27)
		(product "36R1-3813")
		(description "DRAIN PAN NON DRAINABLE")
		(line-number "2")
	)
	(order-line 
		(quantity 10)
		(product "36R1-3793")
		(description "PANEL END LH (PLENUM)")
		(line-number "3")
	)
)

(order (orderNumber 1015)
	(order-line 
		(quantity 7)
		(product "36R1-3613")
		(description "PLATE UPPER")
		(line-number "1")
	)
	(order-line 
		(quantity 7)
		(product "36R1-3571")
		(description "CLIP 12 GAUGE WIRE")
		(line-number "2")
	)
	(order-line 
		(quantity 27)
		(product "36R1-3563")
		(description "PANEL FRONT")
		(line-number "3")
	)
)

(order (orderNumber 1009)
	(order-line 
		(quantity 3)
		(product "36R1-3443")
		(description "SUPPORT COIL RV,RH,TE")
		(line-number "1")
	)
	(order-line 
		(quantity 10)
		(product "36R1-3571")
		(description "CLIP 12 GAUGE WIRE")
		(line-number "2")
	)
	(order-line 
		(quantity 2)
		(product "36R1-3023")
		(description "DRAIN PAN")
		(line-number "3")
	)
)

(order (orderNumber 1083)
	(order-line 
		(quantity 27)
		(product "36R1-3333")
		(description "FRAME DAMPER")
		(line-number "1")
	)
	(order-line 
		(quantity 27)
		(product "36R1-3023")
		(description "DRAIN PAN")
		(line-number "2")
	)
	(order-line 
		(quantity 7)
		(product "36R1-3613")
		(description "PLATE UPPER")
		(line-number "3")
	)
)

